<?xml version='1.0' encoding='UTF-8'?>
<!-- Created with Inkscape (http://www.inkscape.org/) and export_objects.py -->
<svg xmlns:cc="http://creativecommons.org/ns#" xmlns:dc="http://purl.org/dc/elements/1.1/" xmlns:inkscape="http://www.inkscape.org/namespaces/inkscape" xmlns:rdf="http://www.w3.org/1999/02/22-rdf-syntax-ns#" xmlns:sodipodi="http://sodipodi.sourceforge.net/DTD/sodipodi-0.dtd" xmlns:xlink="http://www.w3.org/1999/xlink" xmlns="http://www.w3.org/2000/svg" version="1.1" id="svg1" width="16" height="16" viewBox="0 0 16 16" sodipodi:docname="format-text-direction-vertical-symbolic.svg">
<sodipodi:namedview objecttolerance="10" gridtolerance="10" guidetolerance="10" id="namedview" showgrid="true" inkscape:zoom="0.6002936" inkscape:cx="732.67439" inkscape:cy="-567.94603" inkscape:window-width="1920" inkscape:window-height="1016" inkscape:window-x="0" inkscape:window-y="27" inkscape:window-maximized="1" inkscape:current-layer="layer1">
    <inkscape:grid type="xygrid" id="grid"/>
  </sodipodi:namedview>
  <g transform="matrix(0.999375,0,0,1,-558.65084,-805.36218)" inkscape:label="00188" id="format-text-direction-vertical">
      <path inkscape:connector-curvature="0" id="rect15925" d="m 559,805.36218 h 16 v 16 h -16 z" style="opacity:0;fill:none"/>
      <path inkscape:connector-curvature="0" id="path15933" d="m 561,806.3622 h 2 l 0.01,11.0058 h 2 l -3,2.9883 -3,-2.9883 h 2 z" style="opacity:1"/>
      <path style="opacity:1" d="m 571,806.3622 h 2 l 0.01,11.0058 h 2 l -3,2.9883 -3,-2.9883 h 2 z" id="path15956" inkscape:connector-curvature="0"/>
      <path inkscape:connector-curvature="0" id="path15962" d="m 565.9864,807.3681 -2.5031,6.9896 h 1.5019 c 0.744,-1.997 0,10e-4 0.7424,-1.9955 l 2.5585,0.018 0.7041,1.9775 h 1.5019 l -2.5031,-6.9896 z m 1.0013,1.4978 1.0123,2.4963 h -2.0025 z" style="opacity:1"/>
    </g>
    </svg>
